verilog/exps/ALU/obj_dir/dump.vcd
$version Generated by VerilatedVcd $end
$date Thu Mar  3 00:05:18 2022 $end
$timescale 1s $end

 $scope module TOP $end
  $var wire  4 $ A [3:0] $end
  $var wire  4 % B [3:0] $end
  $var wire  1 ( carry $end
  $var wire  1 ) overflow $end
  $var wire  4 & result [3:0] $end
  $var wire  3 # sel [2:0] $end
  $var wire  1 ' zero $end
  $scope module ALU $end
   $var wire  4 $ A [3:0] $end
   $var wire  4 % B [3:0] $end
   $var wire  1 ( carry $end
   $var wire  1 ) overflow $end
   $var wire  4 & result [3:0] $end
   $var wire  4 * result0 [3:0] $end
   $var wire  3 # sel [2:0] $end
   $var wire  1 + sub $end
   $var wire  1 ' zero $end
   $scope module addsub4inst1 $end
    $var wire  4 $ A [3:0] $end
    $var wire  4 % B [3:0] $end
    $var wire  4 , B1 [3:0] $end
    $var wire  1 ( carry $end
    $var wire  1 ) overflow $end
    $var wire  4 * result [3:0] $end
    $var wire  1 + sub $end
    $var wire  1 ' zero $end
    $scope module add4inst1 $end
     $var wire  4 $ A [3:0] $end
     $var wire  4 , B [3:0] $end
     $var wire  1 ( carry $end
     $var wire  1 + cin $end
     $var wire  1 ) overflow $end
     $var wire  4 * result [3:0] $end
    $upscope $end
   $upscope $end
  $upscope $end
 $upscope $end
$enddefinitions $end


#1
b000 #
b0001 $
b0001 %
b0010 &
0'
0(
0)
b0010 *
0+
b0001 ,
#2
b1000 $
b1000 %
b0000 &
1'
1)
b0000 *
b1000 ,
#3
b1001 %
b0001 &
0'
b0001 *
b1001 ,
#4
b1010 %
b0010 &
b0010 *
b1010 ,
#5
b1011 %
b0011 &
b0011 *
b1011 ,
#6
b1100 %
b0100 &
b0100 *
b1100 ,
#7
b1101 %
b0101 &
b0101 *
b1101 ,
#8
b1110 %
b0110 &
b0110 *
b1110 ,
#9
b1111 %
b0111 &
b0111 *
b1111 ,
#10
b0000 %
b1000 &
1(
0)
b1000 *
b0000 ,
#11
b0001 %
b1001 &
b1001 *
b0001 ,
#12
b0010 %
b1010 &
b1010 *
b0010 ,
#13
b0011 %
b1011 &
b1011 *
b0011 ,
#14
b0100 %
b1100 &
b1100 *
b0100 ,
#15
b0101 %
b1101 &
b1101 *
b0101 ,
#16
b0110 %
b1110 &
b1110 *
b0110 ,
#17
b0111 %
b1111 &
b1111 *
b0111 ,
#18
b1001 $
b1000 %
b0001 &
0(
1)
b0001 *
b1000 ,
#19
b1001 %
b0010 &
b0010 *
b1001 ,
#20
b1010 %
b0011 &
b0011 *
b1010 ,
#21
b1011 %
b0100 &
b0100 *
b1011 ,
#22
b1100 %
b0101 &
b0101 *
b1100 ,
#23
b1101 %
b0110 &
b0110 *
b1101 ,
#24
b1110 %
b0111 &
b0111 *
b1110 ,
#25
b1111 %
b1000 &
0)
b1000 *
b1111 ,
#26
b0000 %
b1001 &
1(
b1001 *
b0000 ,
#27
b0001 %
b1010 &
b1010 *
b0001 ,
#28
b0010 %
b1011 &
b1011 *
b0010 ,
#29
b0011 %
b1100 &
b1100 *
b0011 ,
#30
b0100 %
b1101 &
b1101 *
b0100 ,
#31
b0101 %
b1110 &
b1110 *
b0101 ,
#32
b0110 %
b1111 &
b1111 *
b0110 ,
#33
b0111 %
b0000 &
1'
0(
b0000 *
b0111 ,
#34
b1010 $
b1000 %
b0010 &
0'
1)
b0010 *
b1000 ,
#35
b1001 %
b0011 &
b0011 *
b1001 ,
#36
b1010 %
b0100 &
b0100 *
b1010 ,
#37
b1011 %
b0101 &
b0101 *
b1011 ,
#38
b1100 %
b0110 &
b0110 *
b1100 ,
#39
b1101 %
b0111 &
b0111 *
b1101 ,
#40
b1110 %
b1000 &
0)
b1000 *
b1110 ,
#41
b1111 %
b1001 &
b1001 *
b1111 ,
#42
b0000 %
b1010 &
1(
b1010 *
b0000 ,
#43
b0001 %
b1011 &
b1011 *
b0001 ,
#44
b0010 %
b1100 &
b1100 *
b0010 ,
#45
b0011 %
b1101 &
b1101 *
b0011 ,
#46
b0100 %
b1110 &
b1110 *
b0100 ,
#47
b0101 %
b1111 &
b1111 *
b0101 ,
#48
b0110 %
b0000 &
1'
0(
b0000 *
b0110 ,
#49
b0111 %
b0001 &
0'
b0001 *
b0111 ,
#50
b1011 $
b1000 %
b0011 &
1)
b0011 *
b1000 ,
#51
b1001 %
b0100 &
b0100 *
b1001 ,
#52
b1010 %
b0101 &
b0101 *
b1010 ,
#53
b1011 %
b0110 &
b0110 *
b1011 ,
#54
b1100 %
b0111 &
b0111 *
b1100 ,
#55
b1101 %
b1000 &
0)
b1000 *
b1101 ,
#56
b1110 %
b1001 &
b1001 *
b1110 ,
#57
b1111 %
b1010 &
b1010 *
b1111 ,
#58
b0000 %
b1011 &
1(
b1011 *
b0000 ,
#59
b0001 %
b1100 &
b1100 *
b0001 ,
#60
b0010 %
b1101 &
b1101 *
b0010 ,
#61
b0011 %
b1110 &
b1110 *
b0011 ,
#62
b0100 %
b1111 &
b1111 *
b0100 ,
#63
b0101 %
b0000 &
1'
0(
b0000 *
b0101 ,
#64
b0110 %
b0001 &
0'
b0001 *
b0110 ,
#65
b0111 %
b0010 &
b0010 *
b0111 ,
#66
b1100 $
b1000 %
b0100 &
1)
b0100 *
b1000 ,
#67
b1001 %
b0101 &
b0101 *
b1001 ,
#68
b1010 %
b0110 &
b0110 *
b1010 ,
#69
b1011 %
b0111 &
b0111 *
b1011 ,
#70
b1100 %
b1000 &
0)
b1000 *
b1100 ,
#71
b1101 %
b1001 &
b1001 *
b1101 ,
#72
b1110 %
b1010 &
b1010 *
b1110 ,
#73
b1111 %
b1011 &
b1011 *
b1111 ,
#74
b0000 %
b1100 &
1(
b1100 *
b0000 ,
#75
b0001 %
b1101 &
b1101 *
b0001 ,
#76
b0010 %
b1110 &
b1110 *
b0010 ,
#77
b0011 %
b1111 &
b1111 *
b0011 ,
#78
b0100 %
b0000 &
1'
0(
b0000 *
b0100 ,
#79
b0101 %
b0001 &
0'
b0001 *
b0101 ,
#80
b0110 %
b0010 &
b0010 *
b0110 ,
#81
b0111 %
b0011 &
b0011 *
b0111 ,
#82
b1101 $
b1000 %
b0101 &
1)
b0101 *
b1000 ,
#83
b1001 %
b0110 &
b0110 *
b1001 ,
#84
b1010 %
b0111 &
b0111 *
b1010 ,
#85
b1011 %
b1000 &
0)
b1000 *
b1011 ,
#86
b1100 %
b1001 &
b1001 *
b1100 ,
#87
b1101 %
b1010 &
b1010 *
b1101 ,
#88
b1110 %
b1011 &
b1011 *
b1110 ,
#89
b1111 %
b1100 &
b1100 *
b1111 ,
#90
b0000 %
b1101 &
1(
b1101 *
b0000 ,
#91
b0001 %
b1110 &
b1110 *
b0001 ,
#92
b0010 %
b1111 &
b1111 *
b0010 ,
#93
b0011 %
b0000 &
1'
0(
b0000 *
b0011 ,
#94
b0100 %
b0001 &
0'
b0001 *
b0100 ,
#95
b0101 %
b0010 &
b0010 *
b0101 ,
#96
b0110 %
b0011 &
b0011 *
b0110 ,
#97
b0111 %
b0100 &
b0100 *
b0111 ,
#98
b1110 $
b1000 %
b0110 &
1)
b0110 *
b1000 ,
#99
b1001 %
b0111 &
b0111 *
b1001 ,
#100
b1010 %
b1000 &
0)
b1000 *
b1010 ,
#101
b1011 %
b1001 &
b1001 *
b1011 ,
#102
b1100 %
b1010 &
b1010 *
b1100 ,
#103
b1101 %
b1011 &
b1011 *
b1101 ,
#104
b1110 %
b1100 &
b1100 *
b1110 ,
#105
b1111 %
b1101 &
b1101 *
b1111 ,
#106
b0000 %
b1110 &
1(
b1110 *
b0000 ,
#107
b0001 %
b1111 &
b1111 *
b0001 ,
#108
b0010 %
b0000 &
1'
0(
b0000 *
b0010 ,
#109
b0011 %
b0001 &
0'
b0001 *
b0011 ,
#110
b0100 %
b0010 &
b0010 *
b0100 ,
#111
b0101 %
b0011 &
b0011 *
b0101 ,
#112
b0110 %
b0100 &
b0100 *
b0110 ,
#113
b0111 %
b0101 &
b0101 *
b0111 ,
#114
b1111 $
b1000 %
b0111 &
1)
b0111 *
b1000 ,
#115
b1001 %
b1000 &
0)
b1000 *
b1001 ,
#116
b1010 %
b1001 &
b1001 *
b1010 ,
#117
b1011 %
b1010 &
b1010 *
b1011 ,
#118
b1100 %
b1011 &
b1011 *
b1100 ,
#119
b1101 %
b1100 &
b1100 *
b1101 ,
#120
b1110 %
b1101 &
b1101 *
b1110 ,
#121
b1111 %
b1110 &
b1110 *
b1111 ,
#122
b0000 %
b1111 &
1(
b1111 *
b0000 ,
#123
b0001 %
b0000 &
1'
0(
b0000 *
b0001 ,
#124
b0010 %
b0001 &
0'
b0001 *
b0010 ,
#125
b0011 %
b0010 &
b0010 *
b0011 ,
#126
b0100 %
b0011 &
b0011 *
b0100 ,
#127
b0101 %
b0100 &
b0100 *
b0101 ,
#128
b0110 %
b0101 &
b0101 *
b0110 ,
#129
b0111 %
b0110 &
b0110 *
b0111 ,
#130
b0000 $
b1000 %
b1000 &
b1000 *
b1000 ,
#131
b1001 %
b1001 &
b1001 *
b1001 ,
#132
b1010 %
b1010 &
b1010 *
b1010 ,
#133
b1011 %
b1011 &
b1011 *
b1011 ,
#134
b1100 %
b1100 &
b1100 *
b1100 ,
#135
b1101 %
b1101 &
b1101 *
b1101 ,
#136
b1110 %
b1110 &
b1110 *
b1110 ,
#137
b1111 %
b1111 &
b1111 *
b1111 ,
#138
b0000 %
b0000 &
1'
b0000 *
b0000 ,
#139
b0001 %
b0001 &
0'
b0001 *
b0001 ,
#140
b0010 %
b0010 &
b0010 *
b0010 ,
#141
b0011 %
b0011 &
b0011 *
b0011 ,
#142
b0100 %
b0100 &
b0100 *
b0100 ,
#143
b0101 %
b0101 &
b0101 *
b0101 ,
#144
b0110 %
b0110 &
b0110 *
b0110 ,
#145
b0111 %
b0111 &
b0111 *
b0111 ,
#146
b0001 $
b1000 %
b1001 &
b1001 *
b1000 ,
#147
b1001 %
b1010 &
b1010 *
b1001 ,
#148
b1010 %
b1011 &
b1011 *
b1010 ,
#149
b1011 %
b1100 &
b1100 *
b1011 ,
#150
b1100 %
b1101 &
b1101 *
b1100 ,
#151
b1101 %
b1110 &
b1110 *
b1101 ,
#152
b1110 %
b1111 &
b1111 *
b1110 ,
#153
b1111 %
b0000 &
1'
1(
b0000 *
b1111 ,
#154
b0000 %
b0001 &
0'
0(
b0001 *
b0000 ,
#155
b0001 %
b0010 &
b0010 *
b0001 ,
#156
b0010 %
b0011 &
b0011 *
b0010 ,
#157
b0011 %
b0100 &
b0100 *
b0011 ,
#158
b0100 %
b0101 &
b0101 *
b0100 ,
#159
b0101 %
b0110 &
b0110 *
b0101 ,
#160
b0110 %
b0111 &
b0111 *
b0110 ,
#161
b0111 %
b1000 &
1)
b1000 *
b0111 ,
#162
b0010 $
b1000 %
b1010 &
0)
b1010 *
b1000 ,
#163
b1001 %
b1011 &
b1011 *
b1001 ,
#164
b1010 %
b1100 &
b1100 *
b1010 ,
#165
b1011 %
b1101 &
b1101 *
b1011 ,
#166
b1100 %
b1110 &
b1110 *
b1100 ,
#167
b1101 %
b1111 &
b1111 *
b1101 ,
#168
b1110 %
b0000 &
1'
1(
b0000 *
b1110 ,
#169
b1111 %
b0001 &
0'
b0001 *
b1111 ,
#170
b0000 %
b0010 &
0(
b0010 *
b0000 ,
#171
b0001 %
b0011 &
b0011 *
b0001 ,
#172
b0010 %
b0100 &
b0100 *
b0010 ,
#173
b0011 %
b0101 &
b0101 *
b0011 ,
#174
b0100 %
b0110 &
b0110 *
b0100 ,
#175
b0101 %
b0111 &
b0111 *
b0101 ,
#176
b0110 %
b1000 &
1)
b1000 *
b0110 ,
#177
b0111 %
b1001 &
b1001 *
b0111 ,
#178
b0011 $
b1000 %
b1011 &
0)
b1011 *
b1000 ,
#179
b1001 %
b1100 &
b1100 *
b1001 ,
#180
b1010 %
b1101 &
b1101 *
b1010 ,
#181
b1011 %
b1110 &
b1110 *
b1011 ,
#182
b1100 %
b1111 &
b1111 *
b1100 ,
#183
b1101 %
b0000 &
1'
1(
b0000 *
b1101 ,
#184
b1110 %
b0001 &
0'
b0001 *
b1110 ,
#185
b1111 %
b0010 &
b0010 *
b1111 ,
#186
b0000 %
b0011 &
0(
b0011 *
b0000 ,
#187
b0001 %
b0100 &
b0100 *
b0001 ,
#188
b0010 %
b0101 &
b0101 *
b0010 ,
#189
b0011 %
b0110 &
b0110 *
b0011 ,
#190
b0100 %
b0111 &
b0111 *
b0100 ,
#191
b0101 %
b1000 &
1)
b1000 *
b0101 ,
#192
b0110 %
b1001 &
b1001 *
b0110 ,
#193
b0111 %
b1010 &
b1010 *
b0111 ,
#194
b0100 $
b1000 %
b1100 &
0)
b1100 *
b1000 ,
#195
b1001 %
b1101 &
b1101 *
b1001 ,
#196
b1010 %
b1110 &
b1110 *
b1010 ,
#197
b1011 %
b1111 &
b1111 *
b1011 ,
#198
b1100 %
b0000 &
1'
1(
b0000 *
b1100 ,
#199
b1101 %
b0001 &
0'
b0001 *
b1101 ,
#200
b1110 %
b0010 &
b0010 *
b1110 ,
#201
b1111 %
b0011 &
b0011 *
b1111 ,
#202
b0000 %
b0100 &
0(
b0100 *
b0000 ,
#203
b0001 %
b0101 &
b0101 *
b0001 ,
#204
b0010 %
b0110 &
b0110 *
b0010 ,
#205
b0011 %
b0111 &
b0111 *
b0011 ,
#206
b0100 %
b1000 &
1)
b1000 *
b0100 ,
#207
b0101 %
b1001 &
b1001 *
b0101 ,
#208
b0110 %
b1010 &
b1010 *
b0110 ,
#209
b0111 %
b1011 &
b1011 *
b0111 ,
#210
b0101 $
b1000 %
b1101 &
0)
b1101 *
b1000 ,
#211
b1001 %
b1110 &
b1110 *
b1001 ,
#212
b1010 %
b1111 &
b1111 *
b1010 ,
#213
b1011 %
b0000 &
1'
1(
b0000 *
b1011 ,
#214
b1100 %
b0001 &
0'
b0001 *
b1100 ,
#215
b1101 %
b0010 &
b0010 *
b1101 ,
#216
b1110 %
b0011 &
b0011 *
b1110 ,
#217
b1111 %
b0100 &
b0100 *
b1111 ,
#218
b0000 %
b0101 &
0(
b0101 *
b0000 ,
#219
b0001 %
b0110 &
b0110 *
b0001 ,
#220
b0010 %
b0111 &
b0111 *
b0010 ,
#221
b0011 %
b1000 &
1)
b1000 *
b0011 ,
#222
b0100 %
b1001 &
b1001 *
b0100 ,
#223
b0101 %
b1010 &
b1010 *
b0101 ,
#224
b0110 %
b1011 &
b1011 *
b0110 ,
#225
b0111 %
b1100 &
b1100 *
b0111 ,
#226
b0110 $
b1000 %
b1110 &
0)
b1110 *
b1000 ,
#227
b1001 %
b1111 &
b1111 *
b1001 ,
#228
b1010 %
b0000 &
1'
1(
b0000 *
b1010 ,
#229
b1011 %
b0001 &
0'
b0001 *
b1011 ,
#230
b1100 %
b0010 &
b0010 *
b1100 ,
#231
b1101 %
b0011 &
b0011 *
b1101 ,
#232
b1110 %
b0100 &
b0100 *
b1110 ,
#233
b1111 %
b0101 &
b0101 *
b1111 ,
#234
b0000 %
b0110 &
0(
b0110 *
b0000 ,
#235
b0001 %
b0111 &
b0111 *
b0001 ,
#236
b0010 %
b1000 &
1)
b1000 *
b0010 ,
#237
b0011 %
b1001 &
b1001 *
b0011 ,
#238
b0100 %
b1010 &
b1010 *
b0100 ,
#239
b0101 %
b1011 &
b1011 *
b0101 ,
#240
b0110 %
b1100 &
b1100 *
b0110 ,
#241
b0111 %
b1101 &
b1101 *
b0111 ,
#242
b0111 $
b1000 %
b1111 &
0)
b1111 *
b1000 ,
#243
b1001 %
b0000 &
1'
1(
b0000 *
b1001 ,
#244
b1010 %
b0001 &
0'
b0001 *
b1010 ,
#245
b1011 %
b0010 &
b0010 *
b1011 ,
#246
b1100 %
b0011 &
b0011 *
b1100 ,
#247
b1101 %
b0100 &
b0100 *
b1101 ,
#248
b1110 %
b0101 &
b0101 *
b1110 ,
#249
b1111 %
b0110 &
b0110 *
b1111 ,
#250
b0000 %
b0111 &
0(
b0111 *
b0000 ,
#251
b0001 %
b1000 &
1)
b1000 *
b0001 ,
#252
b0010 %
b1001 &
b1001 *
b0010 ,
#253
b0011 %
b1010 &
b1010 *
b0011 ,
#254
b0100 %
b1011 &
b1011 *
b0100 ,
#255
b0101 %
b1100 &
b1100 *
b0101 ,
#256
b0110 %
b1101 &
b1101 *
b0110 ,
#257
b0111 %
b1110 &
b1110 *
b0111 ,
#258
b0000 $
b0000 %
b0000 &
1'
0)
b0000 *
b0000 ,
#259
b0001 %
b0001 &
0'
b0001 *
b0001 ,
#260
b0010 %
b0010 &
b0010 *
b0010 ,
#261
b0011 %
b0011 &
b0011 *
b0011 ,
#262
b0100 %
b0100 &
b0100 *
b0100 ,
#263
b0101 %
b0101 &
b0101 *
b0101 ,
#264
b0110 %
b0110 &
b0110 *
b0110 ,
#265
b0111 %
b0111 &
b0111 *
b0111 ,
#266
b1000 %
b1000 &
b1000 *
b1000 ,
#267
b1001 %
b1001 &
b1001 *
b1001 ,
#268
b1010 %
b1010 &
b1010 *
b1010 ,
#269
b1011 %
b1011 &
b1011 *
b1011 ,
#270
b1100 %
b1100 &
b1100 *
b1100 ,
#271
b1101 %
b1101 &
b1101 *
b1101 ,
#272
b1110 %
b1110 &
b1110 *
b1110 ,
#273
b1111 %
b1111 &
b1111 *
b1111 ,
#274
b0001 $
b0000 %
b0001 &
b0001 *
b0000 ,
#275
b0001 %
b0010 &
b0010 *
b0001 ,
#276
b0010 %
b0011 &
b0011 *
b0010 ,
#277
b0011 %
b0100 &
b0100 *
b0011 ,
#278
b0100 %
b0101 &
b0101 *
b0100 ,
#279
b0101 %
b0110 &
b0110 *
b0101 ,
#280
b0110 %
b0111 &
b0111 *
b0110 ,
#281
b0111 %
b1000 &
1)
b1000 *
b0111 ,
#282
b1000 %
b1001 &
0)
b1001 *
b1000 ,
#283
b1001 %
b1010 &
b1010 *
b1001 ,
#284
b1010 %
b1011 &
b1011 *
b1010 ,
#285
b1011 %
b1100 &
b1100 *
b1011 ,
#286
b1100 %
b1101 &
b1101 *
b1100 ,
#287
b1101 %
b1110 &
b1110 *
b1101 ,
#288
b1110 %
b1111 &
b1111 *
b1110 ,
#289
b1111 %
b0000 &
1'
1(
b0000 *
b1111 ,
#290
b0010 $
b0000 %
b0010 &
0'
0(
b0010 *
b0000 ,
#291
b0001 %
b0011 &
b0011 *
b0001 ,
#292
b0010 %
b0100 &
b0100 *
b0010 ,
#293
b0011 %
b0101 &
b0101 *
b0011 ,
#294
b0100 %
b0110 &
b0110 *
b0100 ,
#295
b0101 %
b0111 &
b0111 *
b0101 ,
#296
b0110 %
b1000 &
1)
b1000 *
b0110 ,
#297
b0111 %
b1001 &
b1001 *
b0111 ,
#298
b1000 %
b1010 &
0)
b1010 *
b1000 ,
#299
b1001 %
b1011 &
b1011 *
b1001 ,
#300
b1010 %
b1100 &
b1100 *
b1010 ,
#301
b1011 %
b1101 &
b1101 *
b1011 ,
#302
b1100 %
b1110 &
b1110 *
b1100 ,
#303
b1101 %
b1111 &
b1111 *
b1101 ,
#304
b1110 %
b0000 &
1'
1(
b0000 *
b1110 ,
#305
b1111 %
b0001 &
0'
b0001 *
b1111 ,
#306
b0011 $
b0000 %
b0011 &
0(
b0011 *
b0000 ,
#307
b0001 %
b0100 &
b0100 *
b0001 ,
#308
b0010 %
b0101 &
b0101 *
b0010 ,
#309
b0011 %
b0110 &
b0110 *
b0011 ,
#310
b0100 %
b0111 &
b0111 *
b0100 ,
#311
b0101 %
b1000 &
1)
b1000 *
b0101 ,
#312
b0110 %
b1001 &
b1001 *
b0110 ,
#313
b0111 %
b1010 &
b1010 *
b0111 ,
#314
b1000 %
b1011 &
0)
b1011 *
b1000 ,
#315
b1001 %
b1100 &
b1100 *
b1001 ,
#316
b1010 %
b1101 &
b1101 *
b1010 ,
#317
b1011 %
b1110 &
b1110 *
b1011 ,
#318
b1100 %
b1111 &
b1111 *
b1100 ,
#319
b1101 %
b0000 &
1'
1(
b0000 *
b1101 ,
#320
b1110 %
b0001 &
0'
b0001 *
b1110 ,
#321
b1111 %
b0010 &
b0010 *
b1111 ,
#322
b0100 $
b0000 %
b0100 &
0(
b0100 *
b0000 ,
#323
b0001 %
b0101 &
b0101 *
b0001 ,
#324
b0010 %
b0110 &
b0110 *
b0010 ,
#325
b0011 %
b0111 &
b0111 *
b0011 ,
#326
b0100 %
b1000 &
1)
b1000 *
b0100 ,
#327
b0101 %
b1001 &
b1001 *
b0101 ,
#328
b0110 %
b1010 &
b1010 *
b0110 ,
#329
b0111 %
b1011 &
b1011 *
b0111 ,
#330
b1000 %
b1100 &
0)
b1100 *
b1000 ,
#331
b1001 %
b1101 &
b1101 *
b1001 ,
#332
b1010 %
b1110 &
b1110 *
b1010 ,
#333
b1011 %
b1111 &
b1111 *
b1011 ,
#334
b1100 %
b0000 &
1'
1(
b0000 *
b1100 ,
#335
b1101 %
b0001 &
0'
b0001 *
b1101 ,
#336
b1110 %
b0010 &
b0010 *
b1110 ,
#337
b1111 %
b0011 &
b0011 *
b1111 ,
#338
b0101 $
b0000 %
b0101 &
0(
b0101 *
b0000 ,
#339
b0001 %
b0110 &
b0110 *
b0001 ,
#340
b0010 %
b0111 &
b0111 *
b0010 ,
#341
b0011 %
b1000 &
1)
b1000 *
b0011 ,
#342
b0100 %
b1001 &
b1001 *
b0100 ,
#343
b0101 %
b1010 &
b1010 *
b0101 ,
#344
b0110 %
b1011 &
b1011 *
b0110 ,
#345
b0111 %
b1100 &
b1100 *
b0111 ,
#346
b1000 %
b1101 &
0)
b1101 *
b1000 ,
#347
b1001 %
b1110 &
b1110 *
b1001 ,
#348
b1010 %
b1111 &
b1111 *
b1010 ,
#349
b1011 %
b0000 &
1'
1(
b0000 *
b1011 ,
#350
b1100 %
b0001 &
0'
b0001 *
b1100 ,
#351
b1101 %
b0010 &
b0010 *
b1101 ,
#352
b1110 %
b0011 &
b0011 *
b1110 ,
#353
b1111 %
b0100 &
b0100 *
b1111 ,
#354
b0110 $
b0000 %
b0110 &
0(
b0110 *
b0000 ,
#355
b0001 %
b0111 &
b0111 *
b0001 ,
#356
b0010 %
b1000 &
1)
b1000 *
b0010 ,
#357
b0011 %
b1001 &
b1001 *
b0011 ,
#358
b0100 %
b1010 &
b1010 *
b0100 ,
#359
b0101 %
b1011 &
b1011 *
b0101 ,
#360
b0110 %
b1100 &
b1100 *
b0110 ,
#361
b0111 %
b1101 &
b1101 *
b0111 ,
#362
b1000 %
b1110 &
0)
b1110 *
b1000 ,
#363
b1001 %
b1111 &
b1111 *
b1001 ,
#364
b1010 %
b0000 &
1'
1(
b0000 *
b1010 ,
#365
b1011 %
b0001 &
0'
b0001 *
b1011 ,
#366
b1100 %
b0010 &
b0010 *
b1100 ,
#367
b1101 %
b0011 &
b0011 *
b1101 ,
#368
b1110 %
b0100 &
b0100 *
b1110 ,
#369
b1111 %
b0101 &
b0101 *
b1111 ,
#370
b0111 $
b0000 %
b0111 &
0(
b0111 *
b0000 ,
#371
b0001 %
b1000 &
1)
b1000 *
b0001 ,
#372
b0010 %
b1001 &
b1001 *
b0010 ,
#373
b0011 %
b1010 &
b1010 *
b0011 ,
#374
b0100 %
b1011 &
b1011 *
b0100 ,
#375
b0101 %
b1100 &
b1100 *
b0101 ,
#376
b0110 %
b1101 &
b1101 *
b0110 ,
#377
b0111 %
b1110 &
b1110 *
b0111 ,
#378
b1000 %
b1111 &
0)
b1111 *
b1000 ,
#379
b1001 %
b0000 &
1'
1(
b0000 *
b1001 ,
#380
b1010 %
b0001 &
0'
b0001 *
b1010 ,
#381
b1011 %
b0010 &
b0010 *
b1011 ,
#382
b1100 %
b0011 &
b0011 *
b1100 ,
#383
b1101 %
b0100 &
b0100 *
b1101 ,
#384
b1110 %
b0101 &
b0101 *
b1110 ,
#385
b1111 %
b0110 &
b0110 *
b1111 ,
#386
b1000 $
b0000 %
b1000 &
0(
b1000 *
b0000 ,
#387
b0001 %
b1001 &
b1001 *
b0001 ,
#388
b0010 %
b1010 &
b1010 *
b0010 ,
#389
b0011 %
b1011 &
b1011 *
b0011 ,
#390
b0100 %
b1100 &
b1100 *
b0100 ,
#391
b0101 %
b1101 &
b1101 *
b0101 ,
#392
b0110 %
b1110 &
b1110 *
b0110 ,
#393
b0111 %
b1111 &
b1111 *
b0111 ,
#394
b1000 %
b0000 &
1'
1(
1)
b0000 *
b1000 ,
#395
b1001 %
b0001 &
0'
b0001 *
b1001 ,
#396
b1010 %
b0010 &
b0010 *
b1010 ,
#397
b1011 %
b0011 &
b0011 *
b1011 ,
#398
b1100 %
b0100 &
b0100 *
b1100 ,
#399
b1101 %
b0101 &
b0101 *
b1101 ,
#400
b1110 %
b0110 &
b0110 *
b1110 ,
#401
b1111 %
b0111 &
b0111 *
b1111 ,
#402
b1001 $
b0000 %
b1001 &
0(
0)
b1001 *
b0000 ,
#403
b0001 %
b1010 &
b1010 *
b0001 ,
#404
b0010 %
b1011 &
b1011 *
b0010 ,
#405
b0011 %
b1100 &
b1100 *
b0011 ,
#406
b0100 %
b1101 &
b1101 *
b0100 ,
#407
b0101 %
b1110 &
b1110 *
b0101 ,
#408
b0110 %
b1111 &
b1111 *
b0110 ,
#409
b0111 %
b0000 &
1'
1(
b0000 *
b0111 ,
#410
b1000 %
b0001 &
0'
1)
b0001 *
b1000 ,
#411
b1001 %
b0010 &
b0010 *
b1001 ,
#412
b1010 %
b0011 &
b0011 *
b1010 ,
#413
b1011 %
b0100 &
b0100 *
b1011 ,
#414
b1100 %
b0101 &
b0101 *
b1100 ,
#415
b1101 %
b0110 &
b0110 *
b1101 ,
#416
b1110 %
b0111 &
b0111 *
b1110 ,
#417
b1111 %
b1000 &
0)
b1000 *
b1111 ,
#418
b1010 $
b0000 %
b1010 &
0(
b1010 *
b0000 ,
#419
b0001 %
b1011 &
b1011 *
b0001 ,
#420
b0010 %
b1100 &
b1100 *
b0010 ,
#421
b0011 %
b1101 &
b1101 *
b0011 ,
#422
b0100 %
b1110 &
b1110 *
b0100 ,
#423
b0101 %
b1111 &
b1111 *
b0101 ,
#424
b0110 %
b0000 &
1'
1(
b0000 *
b0110 ,
#425
b0111 %
b0001 &
0'
b0001 *
b0111 ,
#426
b1000 %
b0010 &
1)
b0010 *
b1000 ,
#427
b1001 %
b0011 &
b0011 *
b1001 ,
#428
b1010 %
b0100 &
b0100 *
b1010 ,
#429
b1011 %
b0101 &
b0101 *
b1011 ,
#430
b1100 %
b0110 &
b0110 *
b1100 ,
#431
b1101 %
b0111 &
b0111 *
b1101 ,
#432
b1110 %
b1000 &
0)
b1000 *
b1110 ,
#433
b1111 %
b1001 &
b1001 *
b1111 ,
#434
b1011 $
b0000 %
b1011 &
0(
b1011 *
b0000 ,
#435
b0001 %
b1100 &
b1100 *
b0001 ,
#436
b0010 %
b1101 &
b1101 *
b0010 ,
#437
b0011 %
b1110 &
b1110 *
b0011 ,
#438
b0100 %
b1111 &
b1111 *
b0100 ,
#439
b0101 %
b0000 &
1'
1(
b0000 *
b0101 ,
#440
b0110 %
b0001 &
0'
b0001 *
b0110 ,
#441
b0111 %
b0010 &
b0010 *
b0111 ,
#442
b1000 %
b0011 &
1)
b0011 *
b1000 ,
#443
b1001 %
b0100 &
b0100 *
b1001 ,
#444
b1010 %
b0101 &
b0101 *
b1010 ,
#445
b1011 %
b0110 &
b0110 *
b1011 ,
#446
b1100 %
b0111 &
b0111 *
b1100 ,
#447
b1101 %
b1000 &
0)
b1000 *
b1101 ,
#448
b1110 %
b1001 &
b1001 *
b1110 ,
#449
b1111 %
b1010 &
b1010 *
b1111 ,
#450
b1100 $
b0000 %
b1100 &
0(
b1100 *
b0000 ,
#451
b0001 %
b1101 &
b1101 *
b0001 ,
#452
b0010 %
b1110 &
b1110 *
b0010 ,
#453
b0011 %
b1111 &
b1111 *
b0011 ,
#454
b0100 %
b0000 &
1'
1(
b0000 *
b0100 ,
#455
b0101 %
b0001 &
0'
b0001 *
b0101 ,
#456
b0110 %
b0010 &
b0010 *
b0110 ,
#457
b0111 %
b0011 &
b0011 *
b0111 ,
#458
b1000 %
b0100 &
1)
b0100 *
b1000 ,
#459
b1001 %
b0101 &
b0101 *
b1001 ,
#460
b1010 %
b0110 &
b0110 *
b1010 ,
#461
b1011 %
b0111 &
b0111 *
b1011 ,
#462
b1100 %
b1000 &
0)
b1000 *
b1100 ,
#463
b1101 %
b1001 &
b1001 *
b1101 ,
#464
b1110 %
b1010 &
b1010 *
b1110 ,
#465
b1111 %
b1011 &
b1011 *
b1111 ,
#466
b1101 $
b0000 %
b1101 &
0(
b1101 *
b0000 ,
#467
b0001 %
b1110 &
b1110 *
b0001 ,
#468
b0010 %
b1111 &
b1111 *
b0010 ,
#469
b0011 %
b0000 &
1'
1(
b0000 *
b0011 ,
#470
b0100 %
b0001 &
0'
b0001 *
b0100 ,
#471
b0101 %
b0010 &
b0010 *
b0101 ,
#472
b0110 %
b0011 &
b0011 *
b0110 ,
#473
b0111 %
b0100 &
b0100 *
b0111 ,
#474
b1000 %
b0101 &
1)
b0101 *
b1000 ,
#475
b1001 %
b0110 &
b0110 *
b1001 ,
#476
b1010 %
b0111 &
b0111 *
b1010 ,
#477
b1011 %
b1000 &
0)
b1000 *
b1011 ,
#478
b1100 %
b1001 &
b1001 *
b1100 ,
#479
b1101 %
b1010 &
b1010 *
b1101 ,
#480
b1110 %
b1011 &
b1011 *
b1110 ,
#481
b1111 %
b1100 &
b1100 *
b1111 ,
#482
b1110 $
b0000 %
b1110 &
0(
b1110 *
b0000 ,
#483
b0001 %
b1111 &
b1111 *
b0001 ,
#484
b0010 %
b0000 &
1'
1(
b0000 *
b0010 ,
#485
b0011 %
b0001 &
0'
b0001 *
b0011 ,
